<svg xmlns="http://www.w3.org/2000/svg" width="419.842" height="419.844" viewBox="0 0 419.842 419.844">
  <g id="deco" transform="translate(-419.024 -1659.847)" opacity="0.08">
    <path id="Trazado_2375" data-name="Trazado 2375" d="M628.957,1659.847c-115.76,0-209.933,94.155-209.933,209.884,0,115.773,94.173,209.959,209.933,209.959,115.745,0,209.909-94.186,209.909-209.959C838.866,1754,744.7,1659.847,628.957,1659.847Zm0,382.947c-95.4,0-173.013-77.638-173.013-173.063,0-95.375,77.613-172.969,173.013-172.969s173.019,77.594,173.019,172.969C801.977,1965.157,724.361,2042.794,628.957,2042.794Z" fill="#606060"/>
    <path id="Trazado_2376" data-name="Trazado 2376" d="M638.737,1821.766a71.586,71.586,0,0,0-15.456-22.759,72.723,72.723,0,0,0-22.869-15.274,70.809,70.809,0,0,0-27.731-5.574H538.6v-56.893H500.948v128.584a70.429,70.429,0,0,0,5.61,27.974,73.433,73.433,0,0,0,38.154,38.128,72.278,72.278,0,0,0,55.739,0,71.59,71.59,0,0,0,22.87-15.456,74.033,74.033,0,0,0,15.407-22.692,69.969,69.969,0,0,0,5.648-27.955A70.987,70.987,0,0,0,638.737,1821.766Zm-32.013,28.085a32.912,32.912,0,0,1-2.731,13.2,34.584,34.584,0,0,1-7.237,10.849,35.034,35.034,0,0,1-10.918,7.295,33.689,33.689,0,0,1-26.441-.023,34.5,34.5,0,0,1-10.81-7.256,35.212,35.212,0,0,1-7.276-10.864,32.914,32.914,0,0,1-2.709-13.2V1815.79h34.082a32.96,32.96,0,0,1,13.17,2.7,35.121,35.121,0,0,1,10.9,7.333A33.656,33.656,0,0,1,604,1836.661,32.838,32.838,0,0,1,606.724,1849.851Z" transform="translate(60.233 45.157)" fill="#606060"/>
  </g>
</svg>
